(kicad_sch (version 20211123) (generator eeschema)

  (uuid 1143e682-3023-481b-8a93-91de33acb1e7)

  (paper "A4")

  (lib_symbols
    (symbol "Connector_Generic:Conn_01x04" (pin_names (offset 1.016) hide) (in_bom yes) (on_board yes)
      (property "Reference" "J" (id 0) (at 0 5.08 0)
        (effects (font (size 1.27 1.27)))
      )
      (property "Value" "Conn_01x04" (id 1) (at 0 -7.62 0)
        (effects (font (size 1.27 1.27)))
      )
      (property "Footprint" "" (id 2) (at 0 0 0)
        (effects (font (size 1.27 1.27)) hide)
      )
      (property "Datasheet" "~" (id 3) (at 0 0 0)
        (effects (font (size 1.27 1.27)) hide)
      )
      (property "ki_keywords" "connector" (id 4) (at 0 0 0)
        (effects (font (size 1.27 1.27)) hide)
      )
      (property "ki_description" "Generic connector, single row, 01x04, script generated (kicad-library-utils/schlib/autogen/connector/)" (id 5) (at 0 0 0)
        (effects (font (size 1.27 1.27)) hide)
      )
      (property "ki_fp_filters" "Connector*:*_1x??_*" (id 6) (at 0 0 0)
        (effects (font (size 1.27 1.27)) hide)
      )
      (symbol "Conn_01x04_1_1"
        (rectangle (start -1.27 -4.953) (end 0 -5.207)
          (stroke (width 0.1524) (type default) (color 0 0 0 0))
          (fill (type none))
        )
        (rectangle (start -1.27 -2.413) (end 0 -2.667)
          (stroke (width 0.1524) (type default) (color 0 0 0 0))
          (fill (type none))
        )
        (rectangle (start -1.27 0.127) (end 0 -0.127)
          (stroke (width 0.1524) (type default) (color 0 0 0 0))
          (fill (type none))
        )
        (rectangle (start -1.27 2.667) (end 0 2.413)
          (stroke (width 0.1524) (type default) (color 0 0 0 0))
          (fill (type none))
        )
        (rectangle (start -1.27 3.81) (end 1.27 -6.35)
          (stroke (width 0.254) (type default) (color 0 0 0 0))
          (fill (type background))
        )
        (pin passive line (at -5.08 2.54 0) (length 3.81)
          (name "Pin_1" (effects (font (size 1.27 1.27))))
          (number "1" (effects (font (size 1.27 1.27))))
        )
        (pin passive line (at -5.08 0 0) (length 3.81)
          (name "Pin_2" (effects (font (size 1.27 1.27))))
          (number "2" (effects (font (size 1.27 1.27))))
        )
        (pin passive line (at -5.08 -2.54 0) (length 3.81)
          (name "Pin_3" (effects (font (size 1.27 1.27))))
          (number "3" (effects (font (size 1.27 1.27))))
        )
        (pin passive line (at -5.08 -5.08 0) (length 3.81)
          (name "Pin_4" (effects (font (size 1.27 1.27))))
          (number "4" (effects (font (size 1.27 1.27))))
        )
      )
    )
    (symbol "Simulation_SPICE:VDC" (pin_numbers hide) (pin_names (offset 0.0254)) (in_bom yes) (on_board yes)
      (property "Reference" "V" (id 0) (at 2.54 2.54 0)
        (effects (font (size 1.27 1.27)) (justify left))
      )
      (property "Value" "VDC" (id 1) (at 2.54 0 0)
        (effects (font (size 1.27 1.27)) (justify left))
      )
      (property "Footprint" "" (id 2) (at 0 0 0)
        (effects (font (size 1.27 1.27)) hide)
      )
      (property "Datasheet" "~" (id 3) (at 0 0 0)
        (effects (font (size 1.27 1.27)) hide)
      )
      (property "Spice_Netlist_Enabled" "Y" (id 4) (at 0 0 0)
        (effects (font (size 1.27 1.27)) (justify left) hide)
      )
      (property "Spice_Primitive" "V" (id 5) (at 0 0 0)
        (effects (font (size 1.27 1.27)) (justify left) hide)
      )
      (property "Spice_Model" "dc(1)" (id 6) (at 2.54 -2.54 0)
        (effects (font (size 1.27 1.27)) (justify left))
      )
      (property "ki_keywords" "simulation" (id 7) (at 0 0 0)
        (effects (font (size 1.27 1.27)) hide)
      )
      (property "ki_description" "Voltage source, DC" (id 8) (at 0 0 0)
        (effects (font (size 1.27 1.27)) hide)
      )
      (symbol "VDC_0_0"
        (polyline
          (pts
            (xy -1.27 0.254)
            (xy 1.27 0.254)
          )
          (stroke (width 0) (type default) (color 0 0 0 0))
          (fill (type none))
        )
        (polyline
          (pts
            (xy -0.762 -0.254)
            (xy -1.27 -0.254)
          )
          (stroke (width 0) (type default) (color 0 0 0 0))
          (fill (type none))
        )
        (polyline
          (pts
            (xy 0.254 -0.254)
            (xy -0.254 -0.254)
          )
          (stroke (width 0) (type default) (color 0 0 0 0))
          (fill (type none))
        )
        (polyline
          (pts
            (xy 1.27 -0.254)
            (xy 0.762 -0.254)
          )
          (stroke (width 0) (type default) (color 0 0 0 0))
          (fill (type none))
        )
        (text "+" (at 0 1.905 0)
          (effects (font (size 1.27 1.27)))
        )
      )
      (symbol "VDC_0_1"
        (circle (center 0 0) (radius 2.54)
          (stroke (width 0.254) (type default) (color 0 0 0 0))
          (fill (type background))
        )
      )
      (symbol "VDC_1_1"
        (pin passive line (at 0 5.08 270) (length 2.54)
          (name "~" (effects (font (size 1.27 1.27))))
          (number "1" (effects (font (size 1.27 1.27))))
        )
        (pin passive line (at 0 -5.08 90) (length 2.54)
          (name "~" (effects (font (size 1.27 1.27))))
          (number "2" (effects (font (size 1.27 1.27))))
        )
      )
    )
    (symbol "power:GND" (power) (pin_names (offset 0)) (in_bom yes) (on_board yes)
      (property "Reference" "#PWR" (id 0) (at 0 -6.35 0)
        (effects (font (size 1.27 1.27)) hide)
      )
      (property "Value" "GND" (id 1) (at 0 -3.81 0)
        (effects (font (size 1.27 1.27)))
      )
      (property "Footprint" "" (id 2) (at 0 0 0)
        (effects (font (size 1.27 1.27)) hide)
      )
      (property "Datasheet" "" (id 3) (at 0 0 0)
        (effects (font (size 1.27 1.27)) hide)
      )
      (property "ki_keywords" "power-flag" (id 4) (at 0 0 0)
        (effects (font (size 1.27 1.27)) hide)
      )
      (property "ki_description" "Power symbol creates a global label with name \"GND\" , ground" (id 5) (at 0 0 0)
        (effects (font (size 1.27 1.27)) hide)
      )
      (symbol "GND_0_1"
        (polyline
          (pts
            (xy 0 0)
            (xy 0 -1.27)
            (xy 1.27 -1.27)
            (xy 0 -2.54)
            (xy -1.27 -1.27)
            (xy 0 -1.27)
          )
          (stroke (width 0) (type default) (color 0 0 0 0))
          (fill (type none))
        )
      )
      (symbol "GND_1_1"
        (pin power_in line (at 0 0 270) (length 0) hide
          (name "GND" (effects (font (size 1.27 1.27))))
          (number "1" (effects (font (size 1.27 1.27))))
        )
      )
    )
    (symbol "power:PWR_FLAG" (power) (pin_numbers hide) (pin_names (offset 0) hide) (in_bom yes) (on_board yes)
      (property "Reference" "#FLG" (id 0) (at 0 1.905 0)
        (effects (font (size 1.27 1.27)) hide)
      )
      (property "Value" "PWR_FLAG" (id 1) (at 0 3.81 0)
        (effects (font (size 1.27 1.27)))
      )
      (property "Footprint" "" (id 2) (at 0 0 0)
        (effects (font (size 1.27 1.27)) hide)
      )
      (property "Datasheet" "~" (id 3) (at 0 0 0)
        (effects (font (size 1.27 1.27)) hide)
      )
      (property "ki_keywords" "power-flag" (id 4) (at 0 0 0)
        (effects (font (size 1.27 1.27)) hide)
      )
      (property "ki_description" "Special symbol for telling ERC where power comes from" (id 5) (at 0 0 0)
        (effects (font (size 1.27 1.27)) hide)
      )
      (symbol "PWR_FLAG_0_0"
        (pin power_out line (at 0 0 90) (length 0)
          (name "pwr" (effects (font (size 1.27 1.27))))
          (number "1" (effects (font (size 1.27 1.27))))
        )
      )
      (symbol "PWR_FLAG_0_1"
        (polyline
          (pts
            (xy 0 0)
            (xy 0 1.27)
            (xy -1.016 1.905)
            (xy 0 2.54)
            (xy 1.016 1.905)
            (xy 0 1.27)
          )
          (stroke (width 0) (type default) (color 0 0 0 0))
          (fill (type none))
        )
      )
    )
    (symbol "power:VCC" (power) (pin_names (offset 0)) (in_bom yes) (on_board yes)
      (property "Reference" "#PWR" (id 0) (at 0 -3.81 0)
        (effects (font (size 1.27 1.27)) hide)
      )
      (property "Value" "VCC" (id 1) (at 0 3.81 0)
        (effects (font (size 1.27 1.27)))
      )
      (property "Footprint" "" (id 2) (at 0 0 0)
        (effects (font (size 1.27 1.27)) hide)
      )
      (property "Datasheet" "" (id 3) (at 0 0 0)
        (effects (font (size 1.27 1.27)) hide)
      )
      (property "ki_keywords" "power-flag" (id 4) (at 0 0 0)
        (effects (font (size 1.27 1.27)) hide)
      )
      (property "ki_description" "Power symbol creates a global label with name \"VCC\"" (id 5) (at 0 0 0)
        (effects (font (size 1.27 1.27)) hide)
      )
      (symbol "VCC_0_1"
        (polyline
          (pts
            (xy -0.762 1.27)
            (xy 0 2.54)
          )
          (stroke (width 0) (type default) (color 0 0 0 0))
          (fill (type none))
        )
        (polyline
          (pts
            (xy 0 0)
            (xy 0 2.54)
          )
          (stroke (width 0) (type default) (color 0 0 0 0))
          (fill (type none))
        )
        (polyline
          (pts
            (xy 0 2.54)
            (xy 0.762 1.27)
          )
          (stroke (width 0) (type default) (color 0 0 0 0))
          (fill (type none))
        )
      )
      (symbol "VCC_1_1"
        (pin power_in line (at 0 0 90) (length 0) hide
          (name "VCC" (effects (font (size 1.27 1.27))))
          (number "1" (effects (font (size 1.27 1.27))))
        )
      )
    )
    (symbol "pspice:VSOURCE" (pin_names (offset 1.016)) (in_bom yes) (on_board yes)
      (property "Reference" "V" (id 0) (at -6.35 7.62 0)
        (effects (font (size 1.27 1.27)))
      )
      (property "Value" "VSOURCE" (id 1) (at 0 0 0)
        (effects (font (size 1.27 1.27)))
      )
      (property "Footprint" "" (id 2) (at 0 0 0)
        (effects (font (size 1.27 1.27)) hide)
      )
      (property "Datasheet" "~" (id 3) (at 0 0 0)
        (effects (font (size 1.27 1.27)) hide)
      )
      (property "ki_keywords" "simulation" (id 4) (at 0 0 0)
        (effects (font (size 1.27 1.27)) hide)
      )
      (property "ki_description" "Voltage source symbol for simulation only" (id 5) (at 0 0 0)
        (effects (font (size 1.27 1.27)) hide)
      )
      (symbol "VSOURCE_0_1"
        (polyline
          (pts
            (xy -6.35 -6.35)
            (xy -6.35 3.81)
          )
          (stroke (width 0) (type default) (color 0 0 0 0))
          (fill (type outline))
        )
        (polyline
          (pts
            (xy -7.62 3.81)
            (xy -6.35 6.35)
            (xy -5.08 3.81)
          )
          (stroke (width 0) (type default) (color 0 0 0 0))
          (fill (type outline))
        )
        (circle (center 0 0) (radius 5.08)
          (stroke (width 0) (type default) (color 0 0 0 0))
          (fill (type none))
        )
        (text "V" (at -8.128 -0.254 0)
          (effects (font (size 1.27 1.27)))
        )
      )
      (symbol "VSOURCE_1_1"
        (pin input line (at 0 7.62 270) (length 2.54)
          (name "E1" (effects (font (size 1.27 1.27))))
          (number "1" (effects (font (size 1.27 1.27))))
        )
        (pin input line (at 0 -7.62 90) (length 2.54)
          (name "E2" (effects (font (size 1.27 1.27))))
          (number "2" (effects (font (size 1.27 1.27))))
        )
      )
    )
  )

  (junction (at 187.96 52.07) (diameter 0) (color 0 0 0 0)
    (uuid 16fca9e4-bb09-460c-83f7-6bae0afd4d76)
  )
  (junction (at 187.96 86.36) (diameter 0) (color 0 0 0 0)
    (uuid 221ba4b1-4f8c-498d-bae0-2e0d88de77b7)
  )
  (junction (at 151.13 60.96) (diameter 0) (color 0 0 0 0)
    (uuid 543e7774-f7cc-4b91-b2b5-69ee3bb729eb)
  )
  (junction (at 21.59 40.64) (diameter 0) (color 0 0 0 0)
    (uuid 6ef0f8ea-9e4e-4b35-8618-2135a3455a32)
  )
  (junction (at 21.59 54.61) (diameter 0) (color 0 0 0 0)
    (uuid e1023a7c-2ea9-41a3-ae9c-05422a0f6f4b)
  )

  (no_connect (at 143.51 58.42) (uuid 9f55cd87-c990-42d6-b444-5361c6fd027d))

  (wire (pts (xy 143.51 53.34) (xy 148.59 53.34))
    (stroke (width 0) (type default) (color 0 0 0 0))
    (uuid 020920f0-db46-491f-829b-14c8d49ac087)
  )
  (wire (pts (xy 151.13 60.96) (xy 151.13 67.31))
    (stroke (width 0) (type default) (color 0 0 0 0))
    (uuid 03326fa2-0119-48b8-93b7-dcfb27fec483)
  )
  (wire (pts (xy 156.21 44.45) (xy 156.21 46.99))
    (stroke (width 0) (type default) (color 0 0 0 0))
    (uuid 0c7b75f6-df9c-4f61-962e-638c911d957c)
  )
  (wire (pts (xy 21.59 54.61) (xy 21.59 57.15))
    (stroke (width 0) (type default) (color 0 0 0 0))
    (uuid 0ce2d435-36ad-4fae-91b5-4471cf254394)
  )
  (wire (pts (xy 29.21 57.15) (xy 29.21 54.61))
    (stroke (width 0) (type default) (color 0 0 0 0))
    (uuid 1fa352a7-ca48-4b5a-84b6-7fa1bde7fe9c)
  )
  (wire (pts (xy 21.59 39.37) (xy 21.59 40.64))
    (stroke (width 0) (type default) (color 0 0 0 0))
    (uuid 20eee223-a4ac-4d88-9515-8fc0fc645590)
  )
  (wire (pts (xy 29.21 54.61) (xy 21.59 54.61))
    (stroke (width 0) (type default) (color 0 0 0 0))
    (uuid 262e5dff-d3a3-4a63-a07e-90d4afdab08b)
  )
  (wire (pts (xy 21.59 53.34) (xy 21.59 54.61))
    (stroke (width 0) (type default) (color 0 0 0 0))
    (uuid 29d3a192-d7ec-48cd-82f1-759cda6fc3bd)
  )
  (wire (pts (xy 21.59 40.64) (xy 21.59 43.18))
    (stroke (width 0) (type default) (color 0 0 0 0))
    (uuid 2dc8ef7a-15bc-48bb-91aa-9f33126a7904)
  )
  (wire (pts (xy 187.96 44.45) (xy 187.96 52.07))
    (stroke (width 0) (type default) (color 0 0 0 0))
    (uuid 2e343d1e-c139-4061-a646-bd22351fa704)
  )
  (wire (pts (xy 187.96 52.07) (xy 224.79 52.07))
    (stroke (width 0) (type default) (color 0 0 0 0))
    (uuid 3894d24c-a5ec-480a-8d78-63bd72738ba9)
  )
  (wire (pts (xy 187.96 69.85) (xy 224.79 69.85))
    (stroke (width 0) (type default) (color 0 0 0 0))
    (uuid 3a77a607-26f0-43eb-9b88-405ebe121963)
  )
  (wire (pts (xy 151.13 86.36) (xy 187.96 86.36))
    (stroke (width 0) (type default) (color 0 0 0 0))
    (uuid 49f51efe-d4db-4730-9631-34a68516dcb4)
  )
  (wire (pts (xy 187.96 86.36) (xy 187.96 88.9))
    (stroke (width 0) (type default) (color 0 0 0 0))
    (uuid 59c50183-93a8-4129-a068-c626a4368daa)
  )
  (wire (pts (xy 143.51 55.88) (xy 187.96 55.88))
    (stroke (width 0) (type default) (color 0 0 0 0))
    (uuid 6cce97f4-c7fa-47f3-8bec-ec46a69d2306)
  )
  (wire (pts (xy 29.21 40.64) (xy 21.59 40.64))
    (stroke (width 0) (type default) (color 0 0 0 0))
    (uuid 6eaf6854-5f0d-4c21-9e08-1b2c5b2e4405)
  )
  (wire (pts (xy 187.96 55.88) (xy 187.96 52.07))
    (stroke (width 0) (type default) (color 0 0 0 0))
    (uuid 78163f42-5cee-4695-8daa-8a36a3d1a8f7)
  )
  (wire (pts (xy 187.96 69.85) (xy 187.96 86.36))
    (stroke (width 0) (type default) (color 0 0 0 0))
    (uuid 8776c0bd-5fd3-4bb9-b759-c9c5a166b0d4)
  )
  (wire (pts (xy 148.59 44.45) (xy 156.21 44.45))
    (stroke (width 0) (type default) (color 0 0 0 0))
    (uuid 911d1419-0165-4ee1-a27a-7b133ad65531)
  )
  (wire (pts (xy 143.51 60.96) (xy 151.13 60.96))
    (stroke (width 0) (type default) (color 0 0 0 0))
    (uuid 9faf738c-1813-4a20-955b-767d6c9bd199)
  )
  (wire (pts (xy 29.21 39.37) (xy 29.21 40.64))
    (stroke (width 0) (type default) (color 0 0 0 0))
    (uuid ad6aaf41-a14f-4880-bff8-fca922fdd687)
  )
  (wire (pts (xy 224.79 60.96) (xy 151.13 60.96))
    (stroke (width 0) (type default) (color 0 0 0 0))
    (uuid c63eb6d5-0dd2-4ff4-8f80-35336dfe7630)
  )
  (wire (pts (xy 151.13 82.55) (xy 151.13 86.36))
    (stroke (width 0) (type default) (color 0 0 0 0))
    (uuid d34752b6-9ec9-471d-ab22-06cb2b5ec43a)
  )
  (wire (pts (xy 148.59 53.34) (xy 148.59 44.45))
    (stroke (width 0) (type default) (color 0 0 0 0))
    (uuid db4990d0-21c3-4754-a16a-bb698199585d)
  )

  (text ".param boardvcc=5\n" (at 26.67 22.86 0)
    (effects (font (size 1.27 1.27)) (justify left bottom))
    (uuid ce3005c6-cebe-4116-8206-1313f49536fe)
  )

  (label "In" (at 151.13 64.77 0)
    (effects (font (size 1.27 1.27)) (justify left bottom))
    (uuid 0937e1c2-c653-440a-8897-301903f20f81)
  )

  (symbol (lib_id "power:PWR_FLAG") (at 29.21 39.37 0) (unit 1)
    (in_bom yes) (on_board yes) (fields_autoplaced)
    (uuid 00f3c8fd-86fc-42b2-b50f-07108597b820)
    (property "Reference" "#FLG0102" (id 0) (at 29.21 37.465 0)
      (effects (font (size 1.27 1.27)) hide)
    )
    (property "Value" "PWR_FLAG" (id 1) (at 29.21 34.29 0))
    (property "Footprint" "" (id 2) (at 29.21 39.37 0)
      (effects (font (size 1.27 1.27)) hide)
    )
    (property "Datasheet" "~" (id 3) (at 29.21 39.37 0)
      (effects (font (size 1.27 1.27)) hide)
    )
    (pin "1" (uuid 822edfa1-01b5-4b3d-8d84-cc781259830a))
  )

  (symbol (lib_id "power:PWR_FLAG") (at 29.21 57.15 180) (unit 1)
    (in_bom yes) (on_board yes) (fields_autoplaced)
    (uuid 037c6b13-6381-4896-84fd-e26cf7591b38)
    (property "Reference" "#FLG0101" (id 0) (at 29.21 59.055 0)
      (effects (font (size 1.27 1.27)) hide)
    )
    (property "Value" "PWR_FLAG" (id 1) (at 29.21 62.23 0))
    (property "Footprint" "" (id 2) (at 29.21 57.15 0)
      (effects (font (size 1.27 1.27)) hide)
    )
    (property "Datasheet" "~" (id 3) (at 29.21 57.15 0)
      (effects (font (size 1.27 1.27)) hide)
    )
    (pin "1" (uuid 009b2062-0ed5-477d-8dd1-43d87569c5b6))
  )

  (symbol (lib_id "power:GND") (at 21.59 57.15 0) (unit 1)
    (in_bom yes) (on_board yes) (fields_autoplaced)
    (uuid 0553ccd9-2181-42e0-adfc-5c5cb1876ec1)
    (property "Reference" "#PWR02" (id 0) (at 21.59 63.5 0)
      (effects (font (size 1.27 1.27)) hide)
    )
    (property "Value" "GND" (id 1) (at 21.59 62.23 0))
    (property "Footprint" "" (id 2) (at 21.59 57.15 0)
      (effects (font (size 1.27 1.27)) hide)
    )
    (property "Datasheet" "" (id 3) (at 21.59 57.15 0)
      (effects (font (size 1.27 1.27)) hide)
    )
    (pin "1" (uuid 72cd5ea3-ace8-4748-bb78-690386a09366))
  )

  (symbol (lib_id "power:VCC") (at 21.59 39.37 0) (unit 1)
    (in_bom yes) (on_board yes) (fields_autoplaced)
    (uuid 10369524-f302-4a73-bc90-4dc53986fea1)
    (property "Reference" "#PWR01" (id 0) (at 21.59 43.18 0)
      (effects (font (size 1.27 1.27)) hide)
    )
    (property "Value" "VCC" (id 1) (at 21.59 34.29 0))
    (property "Footprint" "" (id 2) (at 21.59 39.37 0)
      (effects (font (size 1.27 1.27)) hide)
    )
    (property "Datasheet" "" (id 3) (at 21.59 39.37 0)
      (effects (font (size 1.27 1.27)) hide)
    )
    (pin "1" (uuid c8630117-d88c-4790-bb94-94129a3721b1))
  )

  (symbol (lib_id "power:GND") (at 187.96 88.9 0) (unit 1)
    (in_bom yes) (on_board yes) (fields_autoplaced)
    (uuid 3afa1475-a28f-42c9-985e-d2760eb3d7bc)
    (property "Reference" "#PWR04" (id 0) (at 187.96 95.25 0)
      (effects (font (size 1.27 1.27)) hide)
    )
    (property "Value" "GND" (id 1) (at 187.96 93.98 0))
    (property "Footprint" "" (id 2) (at 187.96 88.9 0)
      (effects (font (size 1.27 1.27)) hide)
    )
    (property "Datasheet" "" (id 3) (at 187.96 88.9 0)
      (effects (font (size 1.27 1.27)) hide)
    )
    (pin "1" (uuid fe2c8094-4196-4b96-9f4b-2d16463a564e))
  )

  (symbol (lib_id "Connector_Generic:Conn_01x04") (at 138.43 55.88 0) (mirror y) (unit 1)
    (in_bom yes) (on_board yes) (fields_autoplaced)
    (uuid 788d97ff-a12b-4563-a5b7-b2261ac21145)
    (property "Reference" "J1" (id 0) (at 138.43 46.99 0))
    (property "Value" "Conn_01x04" (id 1) (at 138.43 49.53 0))
    (property "Footprint" "Connector_PinHeader_2.54mm:PinHeader_1x04_P2.54mm_Vertical" (id 2) (at 138.43 55.88 0)
      (effects (font (size 1.27 1.27)) hide)
    )
    (property "Datasheet" "~" (id 3) (at 138.43 55.88 0)
      (effects (font (size 1.27 1.27)) hide)
    )
    (pin "1" (uuid 4e860cad-c754-4bf6-99dd-598e733d0a1c))
    (pin "2" (uuid 01ed64d8-c374-43ce-a26e-b25c98d7df0e))
    (pin "3" (uuid e5b3dea8-fafc-4a89-8f18-aac2e3e5ad18))
    (pin "4" (uuid c4e2701c-35d0-4b9a-9c73-c65b3809e861))
  )

  (symbol (lib_id "power:VCC") (at 187.96 44.45 0) (unit 1)
    (in_bom yes) (on_board yes)
    (uuid 975fe4be-2b15-4aa7-96c7-1ac657e3203f)
    (property "Reference" "#PWR03" (id 0) (at 187.96 48.26 0)
      (effects (font (size 1.27 1.27)) hide)
    )
    (property "Value" "VCC" (id 1) (at 187.96 39.37 0))
    (property "Footprint" "" (id 2) (at 187.96 44.45 0)
      (effects (font (size 1.27 1.27)) hide)
    )
    (property "Datasheet" "" (id 3) (at 187.96 44.45 0)
      (effects (font (size 1.27 1.27)) hide)
    )
    (pin "1" (uuid b8db7f72-a1d7-4b3b-8f16-93e9a028961c))
  )

  (symbol (lib_id "power:GND") (at 156.21 46.99 0) (unit 1)
    (in_bom yes) (on_board yes) (fields_autoplaced)
    (uuid aed8a2a9-271f-459c-9dc5-78060156477a)
    (property "Reference" "#PWR05" (id 0) (at 156.21 53.34 0)
      (effects (font (size 1.27 1.27)) hide)
    )
    (property "Value" "GND" (id 1) (at 156.21 52.07 0))
    (property "Footprint" "" (id 2) (at 156.21 46.99 0)
      (effects (font (size 1.27 1.27)) hide)
    )
    (property "Datasheet" "" (id 3) (at 156.21 46.99 0)
      (effects (font (size 1.27 1.27)) hide)
    )
    (pin "1" (uuid 55c7d786-3132-4195-89a4-e685bb05fc46))
  )

  (symbol (lib_id "pspice:VSOURCE") (at 151.13 74.93 0) (unit 1)
    (in_bom no) (on_board no)
    (uuid baa2fd72-d766-45dd-8f88-757f1769e5d4)
    (property "Reference" "V2" (id 0) (at 157.48 73.6599 0)
      (effects (font (size 1.27 1.27)) (justify left))
    )
    (property "Value" "VSOURCE" (id 1) (at 157.48 76.1999 0)
      (effects (font (size 1.27 1.27)) (justify left))
    )
    (property "Footprint" "" (id 2) (at 151.13 74.93 0)
      (effects (font (size 1.27 1.27)) hide)
    )
    (property "Datasheet" "~" (id 3) (at 151.13 74.93 0)
      (effects (font (size 1.27 1.27)) hide)
    )
    (property "Spice_Primitive" "V" (id 4) (at 151.13 74.93 0)
      (effects (font (size 1.27 1.27)) hide)
    )
    (property "Spice_Model" "dc {boardvcc} pulse(0 {boardvcc} 100u 15u 15u 300u 2m)" (id 5) (at 151.13 74.93 0)
      (effects (font (size 1.27 1.27)) hide)
    )
    (property "Spice_Netlist_Enabled" "Y" (id 6) (at 151.13 74.93 0)
      (effects (font (size 1.27 1.27)) hide)
    )
    (pin "1" (uuid a6927891-2cd9-4cf1-8c76-3e7b1743adb5))
    (pin "2" (uuid 57e5674c-ceb9-4fe5-b84d-0889451a609e))
  )

  (symbol (lib_id "Simulation_SPICE:VDC") (at 21.59 48.26 0) (unit 1)
    (in_bom no) (on_board no) (fields_autoplaced)
    (uuid c0e45d76-72a9-4ad8-bbd0-a27fc49236de)
    (property "Reference" "V1" (id 0) (at 25.4 45.5301 0)
      (effects (font (size 1.27 1.27)) (justify left))
    )
    (property "Value" "5" (id 1) (at 25.4 48.0701 0)
      (effects (font (size 1.27 1.27)) (justify left))
    )
    (property "Footprint" "" (id 2) (at 21.59 48.26 0)
      (effects (font (size 1.27 1.27)) hide)
    )
    (property "Datasheet" "~" (id 3) (at 21.59 48.26 0)
      (effects (font (size 1.27 1.27)) hide)
    )
    (property "Spice_Netlist_Enabled" "Y" (id 4) (at 21.59 48.26 0)
      (effects (font (size 1.27 1.27)) (justify left) hide)
    )
    (property "Spice_Primitive" "V" (id 5) (at 21.59 48.26 0)
      (effects (font (size 1.27 1.27)) (justify left) hide)
    )
    (property "Spice_Model" "dc {boardvcc}" (id 6) (at 25.4 50.6101 0)
      (effects (font (size 1.27 1.27)) (justify left))
    )
    (pin "1" (uuid c89db139-3aa9-4168-8d30-678669990596))
    (pin "2" (uuid 288d11c2-09a4-4f91-a95b-8f7ebf84c3dc))
  )

  (sheet (at 224.79 48.26) (size 22.86 25.4) (fields_autoplaced)
    (stroke (width 0.1524) (type solid) (color 0 0 0 0))
    (fill (color 0 0 0 0.0000))
    (uuid df9cbaeb-d440-4186-b548-6d132b47917a)
    (property "Sheet name" "SimpleTransistor" (id 0) (at 224.79 47.5484 0)
      (effects (font (size 1.27 1.27)) (justify left bottom))
    )
    (property "Sheet file" "../Hierarchical Sheets/SimpleTransistorLED.kicad_sch" (id 1) (at 224.79 74.2446 0)
      (effects (font (size 1.27 1.27)) (justify left top))
    )
    (pin "In" input (at 224.79 60.96 180)
      (effects (font (size 1.27 1.27)) (justify left))
      (uuid dc98d4a3-92f3-4169-9291-b87a95d91d66)
    )
    (pin "LEDPWR" input (at 224.79 52.07 180)
      (effects (font (size 1.27 1.27)) (justify left))
      (uuid fab5ce66-8c68-4112-83fc-bf782da96434)
    )
    (pin "LEDGND" input (at 224.79 69.85 180)
      (effects (font (size 1.27 1.27)) (justify left))
      (uuid fe3560e6-8f9b-4ae4-b04d-3dda67c5e1c5)
    )
  )

  (sheet_instances
    (path "/" (page "1"))
    (path "/df9cbaeb-d440-4186-b548-6d132b47917a" (page "2"))
  )

  (symbol_instances
    (path "/037c6b13-6381-4896-84fd-e26cf7591b38"
      (reference "#FLG0101") (unit 1) (value "PWR_FLAG") (footprint "")
    )
    (path "/00f3c8fd-86fc-42b2-b50f-07108597b820"
      (reference "#FLG0102") (unit 1) (value "PWR_FLAG") (footprint "")
    )
    (path "/10369524-f302-4a73-bc90-4dc53986fea1"
      (reference "#PWR01") (unit 1) (value "VCC") (footprint "")
    )
    (path "/0553ccd9-2181-42e0-adfc-5c5cb1876ec1"
      (reference "#PWR02") (unit 1) (value "GND") (footprint "")
    )
    (path "/975fe4be-2b15-4aa7-96c7-1ac657e3203f"
      (reference "#PWR03") (unit 1) (value "VCC") (footprint "")
    )
    (path "/3afa1475-a28f-42c9-985e-d2760eb3d7bc"
      (reference "#PWR04") (unit 1) (value "GND") (footprint "")
    )
    (path "/aed8a2a9-271f-459c-9dc5-78060156477a"
      (reference "#PWR05") (unit 1) (value "GND") (footprint "")
    )
    (path "/df9cbaeb-d440-4186-b548-6d132b47917a/d1a42910-6f9a-4f12-8851-c61a2aafbd0c"
      (reference "D1") (unit 1) (value "LED") (footprint "LED_SMD:LED_PLCC-2")
    )
    (path "/788d97ff-a12b-4563-a5b7-b2261ac21145"
      (reference "J1") (unit 1) (value "Conn_01x04") (footprint "Connector_PinHeader_2.54mm:PinHeader_1x04_P2.54mm_Vertical")
    )
    (path "/df9cbaeb-d440-4186-b548-6d132b47917a/6e2b422c-b216-4b86-aebf-7cedbbbb5803"
      (reference "Q1") (unit 1) (value "PMBT3904") (footprint "Package_TO_SOT_SMD:SOT-23_Handsoldering")
    )
    (path "/df9cbaeb-d440-4186-b548-6d132b47917a/918bdc1d-f2ee-4789-b1fa-21c71f8a417d"
      (reference "R1") (unit 1) (value "{brace}(boardvcc - stl_Vbe){slash}stl_Ib}") (footprint "Resistor_SMD:R_0603_1608Metric_Pad0.98x0.95mm_HandSolder")
    )
    (path "/df9cbaeb-d440-4186-b548-6d132b47917a/2ad72f76-8c6f-4746-8cb9-4654664d1bd9"
      (reference "R2") (unit 1) (value "{brace}(boardvcc - stl_VceSat -stl_ledVf){slash}stl_ledIf}") (footprint "Resistor_SMD:R_0603_1608Metric_Pad0.98x0.95mm_HandSolder")
    )
    (path "/c0e45d76-72a9-4ad8-bbd0-a27fc49236de"
      (reference "V1") (unit 1) (value "5") (footprint "")
    )
    (path "/baa2fd72-d766-45dd-8f88-757f1769e5d4"
      (reference "V2") (unit 1) (value "VSOURCE") (footprint "")
    )
  )
)
